[
  {
    "_class"  : "com.mifos.domain.LoanRepaymentSchedule",
    "id": 1,
    "loan": {
	    "_class"  : "com.mifos.domain.Loan",
	    "id": 1,
	    "accountNo": "000000000001"
	  },
	"fromdate": "2015-07-02",
	"duedate": "2015-08-02",
	"installment": 1,
	"lastmodifiedDate": "2015-10-05",
	"lastmodifiedbyId": 5
  },
  {
    "_class"  : "com.mifos.domain.LoanRepaymentSchedule",
    "id": 2,
    "loan": {
	    "_class"  : "com.mifos.domain.Loan",
	    "id": 1,
	    "accountNo": "000000000001"
	  },
	"fromdate": "2015-09-02",
	"duedate": "2015-12-03",
	"installment": 2,
	"lastmodifiedDate": "2015-10-05",
	"lastmodifiedbyId": 5
  },
   {
    "_class"  : "com.mifos.domain.LoanRepaymentSchedule",
    "id": 3,
    "loan": {
	    "_class"  : "com.mifos.domain.Loan",
	    "id": 1,
	    "accountNo": "000000000001"
	  },
	"fromdate": "2015-09-06",
	"duedate": "2015-11-06",
	"installment": 3,
	"lastmodifiedDate": "2015-10-05",
	"lastmodifiedbyId": 5
  },
  {
    "_class"  : "com.mifos.domain.LoanRepaymentSchedule",
    "id": 4,
    "loan": {
	    "_class"  : "com.mifos.domain.Loan",
	    "id": 1,
	    "accountNo": "000000000001"
	  },
	"fromdate": "2015-09-06",
	"duedate": "2016-08-02",
	"installment": 4,
	"lastmodifiedDate": "2015-10-05",
	"lastmodifiedbyId": 5
  },
  {
    "_class"  : "com.mifos.domain.LoanRepaymentSchedule",
    "id": 5,
    "loan": {
	    "_class"  : "com.mifos.domain.Loan",
	    "id": 2,
	    "accountNo": "000000000002"
	  },
	"fromdate": "2015-09-06",
	"duedate": "2016-08-02",
	"installment": 4,
	"lastmodifiedDate": "2015-10-19",
	"lastmodifiedbyId": 5
  }
 ]